ALU8_bit.vcd
$date
	Wed May 20 10:06:26 2020
$end
$version
	Icarus Verilog
$end
$timescale
	1s
$end
$scope module ALU_tb $end
$scope module a0 $end
$var wire 4 ! OpCode [3:0] $end
$var wire 8 " a [7:0] $end
$var wire 8 # b [7:0] $end
$var wire 8 $ xor_out [7:0] $end
$var wire 8 % xnor_out [7:0] $end
$var wire 8 & trans_out [7:0] $end
$var wire 8 ' or_out [7:0] $end
$var wire 8 ( ones_out [7:0] $end
$var wire 8 ) nor_out [7:0] $end
$var wire 8 * nand_out [7:0] $end
$var wire 8 + incr_out [7:0] $end
$var wire 8 , decre_out [7:0] $end
$var wire 8 - and_out [7:0] $end
$var wire 8 . RCA_out [7:0] $end
$var wire 1 / OF $end
$var wire 8 0 A_LT_B [7:0] $end
$var wire 8 1 A_GT_B [7:0] $end
$var wire 8 2 A_EQ_B [7:0] $end
$var wire 8 3 ALUout [7:0] $end
$scope module m0 $end
$var wire 8 4 a [7:0] $end
$var wire 8 5 out [7:0] $end
$scope module a_1 $end
$var wire 8 6 a [7:0] $end
$var wire 8 7 b [7:0] $end
$var wire 8 8 out [7:0] $end
$upscope $end
$upscope $end
$scope module m1 $end
$var wire 8 9 a [7:0] $end
$var wire 8 : out [7:0] $end
$upscope $end
$scope module m10 $end
$var wire 8 ; a [7:0] $end
$var wire 8 < b [7:0] $end
$var wire 8 = out [7:0] $end
$upscope $end
$scope module m11 $end
$var wire 1 > A_EQ_B $end
$var wire 1 ? A_GT_B $end
$var wire 1 @ A_LT_B $end
$var wire 8 A a [7:0] $end
$var wire 8 B b [7:0] $end
$var wire 1 C gt_out $end
$var wire 1 D lt_out $end
$var wire 1 E z_out $end
$var wire 1 F y_out $end
$var wire 1 G x_out $end
$var wire 1 H r_out $end
$var wire 1 I n_out $end
$var wire 1 J m_out $end
$scope module a1 $end
$var wire 1 E A_EQ_B $end
$var wire 1 G A_GT_B $end
$var wire 1 F A_LT_B $end
$var wire 4 K a [3:0] $end
$var wire 1 L a0_not $end
$var wire 1 M a1_not $end
$var wire 1 N a2_not $end
$var wire 1 O a3_not $end
$var wire 4 P b [3:0] $end
$var wire 1 Q b0_not $end
$var wire 1 R b1_not $end
$var wire 1 S b2_not $end
$var wire 1 T b3_not $end
$var wire 1 U t_out $end
$var wire 1 V x_out $end
$var wire 1 W y_out $end
$var wire 1 X z_out $end
$var wire 8 Y w [7:0] $end
$var wire 3 Z n [2:0] $end
$var wire 5 [ m [4:0] $end
$upscope $end
$scope module a2 $end
$var wire 1 H A_EQ_B $end
$var wire 1 J A_GT_B $end
$var wire 1 I A_LT_B $end
$var wire 4 \ a [3:0] $end
$var wire 1 ] a0_not $end
$var wire 1 ^ a1_not $end
$var wire 1 _ a2_not $end
$var wire 1 ` a3_not $end
$var wire 4 a b [3:0] $end
$var wire 1 b b0_not $end
$var wire 1 c b1_not $end
$var wire 1 d b2_not $end
$var wire 1 e b3_not $end
$var wire 1 f t_out $end
$var wire 1 g x_out $end
$var wire 1 h y_out $end
$var wire 1 i z_out $end
$var wire 8 j w [7:0] $end
$var wire 3 k n [2:0] $end
$var wire 5 l m [4:0] $end
$upscope $end
$upscope $end
$scope module m12 $end
$var wire 8 m a [7:0] $end
$var wire 8 n b [7:0] $end
$var wire 8 o l [7:0] $end
$var wire 8 p m [7:0] $end
$var wire 8 q n [7:0] $end
$var wire 8 r o [7:0] $end
$var wire 8 s p [7:0] $end
$var wire 4 t sel [3:0] $end
$var wire 8 u k [7:0] $end
$var wire 8 v j [7:0] $end
$var wire 8 w i [7:0] $end
$var wire 8 x h [7:0] $end
$var wire 8 y g [7:0] $end
$var wire 8 z f [7:0] $end
$var wire 8 { e [7:0] $end
$var wire 8 | d [7:0] $end
$var wire 8 } c [7:0] $end
$var reg 8 ~ out [7:0] $end
$upscope $end
$scope module m2 $end
$var wire 8 !" A [7:0] $end
$var wire 8 "" B [7:0] $end
$var wire 1 #" Cin $end
$var wire 8 $" z [7:0] $end
$var wire 7 %" w [6:0] $end
$var wire 8 &" Sum [7:0] $end
$var wire 1 / Cout $end
$scope module FA0 $end
$var wire 1 '" A $end
$var wire 1 (" B $end
$var wire 1 #" Cin $end
$var wire 1 )" Cout $end
$var wire 1 *" Sum $end
$var wire 1 +" w1 $end
$var wire 1 ," w2 $end
$var wire 1 -" w3 $end
$var wire 1 ." w4 $end
$upscope $end
$scope module FA1 $end
$var wire 1 /" A $end
$var wire 1 0" B $end
$var wire 1 1" Cin $end
$var wire 1 2" Cout $end
$var wire 1 3" Sum $end
$var wire 1 4" w1 $end
$var wire 1 5" w2 $end
$var wire 1 6" w3 $end
$var wire 1 7" w4 $end
$upscope $end
$scope module FA2 $end
$var wire 1 8" A $end
$var wire 1 9" B $end
$var wire 1 :" Cin $end
$var wire 1 ;" Cout $end
$var wire 1 <" Sum $end
$var wire 1 =" w1 $end
$var wire 1 >" w2 $end
$var wire 1 ?" w3 $end
$var wire 1 @" w4 $end
$upscope $end
$scope module FA3 $end
$var wire 1 A" A $end
$var wire 1 B" B $end
$var wire 1 C" Cin $end
$var wire 1 D" Cout $end
$var wire 1 E" Sum $end
$var wire 1 F" w1 $end
$var wire 1 G" w2 $end
$var wire 1 H" w3 $end
$var wire 1 I" w4 $end
$upscope $end
$scope module FA4 $end
$var wire 1 J" A $end
$var wire 1 K" B $end
$var wire 1 L" Cin $end
$var wire 1 M" Cout $end
$var wire 1 N" Sum $end
$var wire 1 O" w1 $end
$var wire 1 P" w2 $end
$var wire 1 Q" w3 $end
$var wire 1 R" w4 $end
$upscope $end
$scope module FA5 $end
$var wire 1 S" A $end
$var wire 1 T" B $end
$var wire 1 U" Cin $end
$var wire 1 V" Cout $end
$var wire 1 W" Sum $end
$var wire 1 X" w1 $end
$var wire 1 Y" w2 $end
$var wire 1 Z" w3 $end
$var wire 1 [" w4 $end
$upscope $end
$scope module FA6 $end
$var wire 1 \" A $end
$var wire 1 ]" B $end
$var wire 1 ^" Cin $end
$var wire 1 _" Cout $end
$var wire 1 `" Sum $end
$var wire 1 a" w1 $end
$var wire 1 b" w2 $end
$var wire 1 c" w3 $end
$var wire 1 d" w4 $end
$upscope $end
$scope module FA7 $end
$var wire 1 e" A $end
$var wire 1 f" B $end
$var wire 1 g" Cin $end
$var wire 1 / Cout $end
$var wire 1 h" Sum $end
$var wire 1 i" w1 $end
$var wire 1 j" w2 $end
$var wire 1 k" w3 $end
$var wire 1 l" w4 $end
$upscope $end
$upscope $end
$scope module m3 $end
$var wire 8 m" a [7:0] $end
$var wire 8 n" out [7:0] $end
$upscope $end
$scope module m4 $end
$var wire 8 o" a [7:0] $end
$var wire 8 p" out [7:0] $end
$upscope $end
$scope module m5 $end
$var wire 8 q" a [7:0] $end
$var wire 8 r" b [7:0] $end
$var wire 8 s" out [7:0] $end
$upscope $end
$scope module m6 $end
$var wire 8 t" a [7:0] $end
$var wire 8 u" b [7:0] $end
$var wire 8 v" out [7:0] $end
$upscope $end
$scope module m7 $end
$var wire 8 w" a [7:0] $end
$var wire 8 x" b [7:0] $end
$var wire 8 y" out [7:0] $end
$upscope $end
$scope module m8 $end
$var wire 8 z" a [7:0] $end
$var wire 8 {" b [7:0] $end
$var wire 8 |" out [7:0] $end
$upscope $end
$scope module m9 $end
$var wire 8 }" a [7:0] $end
$var wire 8 ~" b [7:0] $end
$var wire 8 !# out [7:0] $end
$upscope $end
$upscope $end
$upscope $end
$scope module ALU_tb $end
$var wire 8 "# ALUout [7:0] $end
$upscope $end
$scope module ALU_tb $end
$var wire 1 / OF $end
$upscope $end
$scope module ALU_tb $end
$var reg 8 ## a [7:0] $end
$upscope $end
$scope module ALU_tb $end
$var reg 8 $# b [7:0] $end
$upscope $end
$scope module ALU_tb $end
$var reg 4 %# OpCode [3:0] $end
$upscope $end
$enddefinitions $end
#0
$dumpvars
b0 %#
b0 $#
b100011 ##
b100011 "#
b100011 !#
b0 ~"
b100011 }"
b11011100 |"
b0 {"
b100011 z"
b100011 y"
b0 x"
b100011 w"
b11111111 v"
b0 u"
b100011 t"
b0 s"
b0 r"
b100011 q"
b11011100 p"
b100011 o"
b100010 n"
b100011 m"
0l"
0k"
0j"
0i"
0h"
0g"
0f"
0e"
0d"
0c"
0b"
0a"
0`"
0_"
0^"
0]"
0\"
0["
0Z"
0Y"
1X"
1W"
0V"
0U"
0T"
1S"
0R"
0Q"
0P"
0O"
0N"
0M"
0L"
0K"
0J"
0I"
0H"
0G"
0F"
0E"
0D"
0C"
0B"
0A"
0@"
0?"
0>"
0="
0<"
0;"
0:"
09"
08"
07"
06"
05"
14"
13"
02"
01"
00"
1/"
0."
0-"
0,"
1+"
1*"
0)"
0("
1'"
b100011 &"
b0 %"
b0 $"
0#"
b0 ""
b100011 !"
b100011 ~
b100011 }
b100011 |
b100010 {
b11011100 z
b0 y
b11111111 x
b100011 w
b11011100 v
b100011 u
b0 t
bz s
b0 r
b0 q
b1 p
b11011100 o
b100100 n
b100011 m
b1100 l
b0 k
b1010 j
0i
1h
1g
0f
1e
1d
1c
1b
b0 a
1`
1_
0^
0]
b11 \
b1100 [
b0 Z
b1000 Y
0X
1W
1V
1U
1T
1S
1R
1Q
b0 P
1O
1N
0M
1L
b10 K
1J
0I
0H
1G
0F
0E
0D
0C
b0 B
b100011 A
0@
1?
0>
b11011100 =
b0 <
b100011 ;
b100100 :
b100011 9
b100011 8
b11111111 7
b100011 6
b100011 5
b100011 4
b100011 3
b0 2
b1 1
b0 0
0/
b100011 .
b0 -
b100010 ,
b100100 +
b11111111 *
b11011100 )
b11011100 (
b100011 '
b100011 &
b11011100 %
b100011 $
b0 #
b100011 "
b0 !
$end
#50
b11 3
b11 ~
b11 "#
1/
1l"
1g"
1_"
1d"
1^"
1V"
1["
1U"
1M"
1R"
1L"
1D"
1I"
1C"
1C
1;"
1E
b1 1
b1 p
1?
16"
17"
1@"
0G
11"
1:"
0*"
1)"
13"
b1111111 %"
12"
0<"
0E"
0N"
0`"
0h"
1X
b1010 [
1f
1."
04"
15"
1="
1F"
1O"
1a"
1i"
1("
10"
19"
1B"
1K"
1T"
1]"
1f"
1M
b0 Y
1]
b1000 j
b10 .
b10 |
b10 }
b10 &"
0W"
b11111111 $"
b10 &
b10 5
b10 8
b10 m
b11111101 %
b11111101 =
b11111101 o
1+"
1X"
b11111101 (
b11111101 z
b11111101 p"
b10 '
b10 w
b10 y"
b11111101 )
b11111101 v
b11111101 |"
b10 $
b10 u
b10 !#
1#"
b0 K
b10 \
0'"
0S"
b1 !
b1 t
b1 %#
b11 +
b11 :
b11 n
b1 ,
b1 {
b1 n"
b10 "
b10 4
b10 6
b10 9
b10 ;
b10 A
b10 !"
b10 m"
b10 o"
b10 q"
b10 t"
b10 w"
b10 z"
b10 }"
b10 ##
#100
b101 3
b101 ~
b101 "#
b1 0
b1 q
1@
1D
1I
b0 2
b0 r
0>
b0 1
b0 p
0?
b1 k
0H
0C
0J
0C"
0L"
0U"
0^"
0g"
1i
b1010 l
1<"
0;"
0E"
0D"
0N"
0M"
0W"
0V"
0`"
0_"
0h"
0/
03"
06"
07"
0f
0="
0@"
0F"
0I"
0O"
0R"
0X"
0["
0a"
0d"
0i"
0l"
01"
09"
0B"
0K"
0T"
0]"
0f"
b10 %"
0)"
0c
0b
b1 j
b11 $"
b101 .
b101 |
b101 }
b101 &"
1*"
0."
b11111110 %
b11111110 =
b11111110 o
b10 -
b10 y
b10 s"
b11111101 *
b11111101 x
b11111101 v"
b11 '
b11 w
b11 y"
b11111100 )
b11111100 v
b11111100 |"
b1 $
b1 u
b1 !#
0#"
b11 a
b10 !
b10 t
b10 %#
b11 #
b11 <
b11 B
b11 ""
b11 r"
b11 u"
b11 x"
b11 {"
b11 ~"
b11 $#
#150
b100 3
b100 ~
b100 "#
1/
1l"
1g"
1_"
1d"
1^"
1V"
1["
b0 0
b0 q
0@
1U"
0D
b1 1
b1 p
1?
1M"
0I
1C
1R"
1J
1L"
1f
b0 k
0*"
1D"
0N"
0W"
0`"
0h"
0h
b10000 l
16"
14"
05"
1>"
1@"
1F"
1I"
1O"
1X"
1a"
1i"
11"
1C"
0("
00"
19"
1B"
1K"
1T"
1]"
1f"
0_
0]
b100000 j
1)"
b100 .
b100 |
b100 }
b100 &"
1<"
b1111111 %"
1;"
b11111100 $"
0."
b111 &
b111 5
b111 8
b111 m
b11111011 %
b11111011 =
b11111011 o
1+"
0,"
1-"
0="
1?"
b11111000 (
b11111000 z
b11111000 p"
b11 -
b11 y
b11 s"
b11111100 *
b11111100 x
b11111100 v"
b111 '
b111 w
b111 y"
b11111000 )
b11111000 v
b11111000 |"
b100 $
b100 u
b100 !#
1#"
b111 \
1'"
18"
b11 !
b11 t
b11 %#
b1000 +
b1000 :
b1000 n
b110 ,
b110 {
b110 n"
b111 "
b111 4
b111 6
b111 9
b111 ;
b111 A
b111 !"
b111 m"
b111 o"
b111 q"
b111 t"
b111 w"
b111 z"
b111 }"
b111 ##
#200
b111 3
b111 ~
b111 "#
0L"
0D"
0C"
0U"
0^"
0g"
0;"
0N"
0M"
0W"
0V"
0`"
0_"
0h"
0/
0g
1h
b0 l
0@"
0I"
0O"
0R"
0X"
0["
0a"
0d"
0i"
0l"
01"
0:"
09"
0B"
0K"
0T"
0]"
0f"
1c
1b
0`
1_
1^
1]
b10000000 j
0)"
03"
b0 %"
02"
0<"
b1000 .
b1000 |
b1000 }
b1000 &"
1E"
b0 $"
b1000 &
b1000 5
b1000 8
b1000 m
b11110111 %
b11110111 =
b11110111 o
0+"
0-"
04"
06"
0="
0>"
0?"
1F"
0G"
0H"
b11110111 (
b11110111 z
b11110111 p"
b0 -
b0 y
b0 s"
b11111111 *
b11111111 x
b11111111 v"
b1000 '
b1000 w
b1000 y"
b11110111 )
b11110111 v
b11110111 |"
b1000 $
b1000 u
b1000 !#
0#"
b0 a
b1000 \
0'"
0/"
08"
1A"
b100 !
b100 t
b100 %#
b0 #
b0 <
b0 B
b0 ""
b0 r"
b0 u"
b0 x"
b0 {"
b0 ~"
b0 $#
b1001 +
b1001 :
b1001 n
b111 ,
b111 {
b111 n"
b1000 "
b1000 4
b1000 6
b1000 9
b1000 ;
b1000 A
b1000 !"
b1000 m"
b1000 o"
b1000 q"
b1000 t"
b1000 w"
b1000 z"
b1000 }"
b1000 ##
#250
b0 3
b0 ~
b0 "#
1?"
1@"
1H"
1I"
1Q"
1R"
1Z"
1["
1c"
1d"
1k"
1l"
0C
1:"
1C"
1L"
1U"
1^"
1g"
0E
1*"
12"
1;"
1E"
1D"
1M"
1V"
1_"
1/
0V
1G
0W
0X
0U
b0 [
0h
0i
0f
16"
1,"
1."
15"
17"
1>"
0F"
1G"
1P"
1Y"
1b"
1j"
11"
1("
10"
19"
1B"
1K"
1T"
1]"
1f"
0O
0N
0M
0L
b10101010 Y
0_
0^
0]
b10101010 j
b1111111 %"
1)"
13"
1<"
1N"
1W"
1`"
b11111111 .
b11111111 |
b11111111 }
b11111111 &"
1h"
b11111111 $"
b11111111 &
b11111111 5
b11111111 8
b11111111 m
b0 %
b0 =
b0 o
0+"
1-"
04"
0="
0O"
0X"
0a"
0i"
b0 (
b0 z
b0 p"
b11111111 '
b11111111 w
b11111111 y"
b0 )
b0 v
b0 |"
b11111111 $
b11111111 u
b11111111 !#
1#"
b1111 K
b1111 \
1'"
1/"
18"
1J"
1S"
1\"
1e"
b101 !
b101 t
b101 %#
b0 +
b0 :
b0 n
b11111110 ,
b11111110 {
b11111110 n"
b11111111 "
b11111111 4
b11111111 6
b11111111 9
b11111111 ;
b11111111 A
b11111111 !"
b11111111 m"
b11111111 o"
b11111111 q"
b11111111 t"
b11111111 w"
b11111111 z"
b11111111 }"
b11111111 ##
#300
b10000001 3
b10000001 ~
b10000001 "#
1F
b1 0
b1 q
1@
0D
b100 Z
0E
b0 1
b0 p
0?
1V
0G
1f
1I
0J
0T
0S
0R
0Q
0e
0d
0c
0b
1N
1M
1L
b10101 Y
1`
1_
1^
b1010100 j
03"
0<"
0E"
0N"
0W"
0`"
b10000000 .
b10000000 |
b10000000 }
b10000000 &"
0*"
0-"
0."
b10000001 %
b10000001 =
b10000001 o
b10000001 -
b10000001 y
b10000001 s"
b1111110 *
b1111110 x
b1111110 v"
b1111110 $
b1111110 u
b1111110 !#
b10000001 &
b10000001 5
b10000001 8
b10000001 m
14"
05"
06"
1="
0>"
0?"
1F"
0G"
0H"
1O"
0P"
0Q"
1X"
0Y"
0Z"
1a"
0b"
0c"
b1111110 (
b1111110 z
b1111110 p"
0#"
b1111 P
b1111 a
b1000 K
b1 \
0/"
08"
0A"
0J"
0S"
0\"
b110 !
b110 t
b110 %#
b11111111 #
b11111111 <
b11111111 B
b11111111 ""
b11111111 r"
b11111111 u"
b11111111 x"
b11111111 {"
b11111111 ~"
b11111111 $#
b10000010 +
b10000010 :
b10000010 n
b10000000 ,
b10000000 {
b10000000 n"
b10000001 "
b10000001 4
b10000001 6
b10000001 9
b10000001 ;
b10000001 A
b10000001 !"
b10000001 m"
b10000001 o"
b10000001 q"
b10000001 t"
b10000001 w"
b10000001 z"
b10000001 }"
b10000001 ##
#350
b11101111 3
b11101111 ~
b11101111 "#
0@"
1G
b1 1
b1 p
1?
b0 k
0:"
0C
02"
0E
b0 0
b0 q
0@
1J
13"
07"
0F
01"
b1100 [
0H
b10000 l
1U
0f
1*"
b1111100 %"
0)"
1W
b0 Z
0X
1g
0I
0h
1i
0R"
0("
0K"
1T
1S
1R
b1000 Y
1e
1d
1c
b100001 j
1O
0M
0L
0_
1]
0<"
0N"
1W"
b100011 .
b100011 |
b100011 }
b100011 &"
0h"
b11101110 $"
0."
b110100 &
b110100 5
b110100 8
b110100 m
b11011010 %
b11011010 =
b11011010 o
0+"
0,"
0="
1>"
0?"
1O"
0P"
1Q"
0X"
1Y"
1Z"
1i"
0j"
0k"
b11001011 (
b11001011 z
b11001011 p"
b10000 -
b10000 y
b10000 s"
b11101111 *
b11101111 x
b11101111 v"
b110101 '
b110101 w
b110101 y"
b11001010 )
b11001010 v
b11001010 |"
b100101 $
b100101 u
b100101 !#
1#"
b1 P
b1 a
b11 K
b100 \
0'"
18"
1J"
1S"
0e"
b111 !
b111 t
b111 %#
b10001 #
b10001 <
b10001 B
b10001 ""
b10001 r"
b10001 u"
b10001 x"
b10001 {"
b10001 ~"
b10001 $#
b110101 +
b110101 :
b110101 n
b110011 ,
b110011 {
b110011 n"
b110100 "
b110100 4
b110100 6
b110100 9
b110100 ;
b110100 A
b110100 !"
b110100 m"
b110100 o"
b110100 q"
b110100 t"
b110100 w"
b110100 z"
b110100 }"
b110100 ##
#400
b11110101 3
b11110101 ~
b11110101 "#
0Q"
1I
0J
0L"
03"
0D"
0N"
0W"
b100 k
0V
1W
b0 [
b0 l
1+"
04"
0F"
0I"
0O"
1P"
0R"
1X"
0Y"
0["
0l"
0C"
1("
00"
0B"
1K"
0T"
0f"
0S
0d
0O
0N
b10001000 Y
1_
b10001 j
1<"
b1110000 %"
0;"
1`"
0h"
b1010101 $"
b1000101 .
b1000101 |
b1000101 }
b1000101 &"
1*"
b11110000 &
b11110000 5
b11110000 8
b11110000 m
b1011010 %
b1011010 =
b1011010 o
1="
0>"
0a"
1b"
1c"
1i"
0j"
1k"
b1111 (
b1111 z
b1111 p"
b1010000 -
b1010000 y
b1010000 s"
b10101111 *
b10101111 x
b10101111 v"
b11110101 '
b11110101 w
b11110101 y"
b1010 )
b1010 v
b1010 |"
b10100101 $
b10100101 u
b10100101 !#
0#"
b101 P
b101 a
b1111 K
b0 \
08"
1\"
1e"
b1000 !
b1000 t
b1000 %#
b1010101 #
b1010101 <
b1010101 B
b1010101 ""
b1010101 r"
b1010101 u"
b1010101 x"
b1010101 {"
b1010101 ~"
b1010101 $#
b11110001 +
b11110001 :
b11110001 n
b11101111 ,
b11101111 {
b11101111 n"
b11110000 "
b11110000 4
b11110000 6
b11110000 9
b11110000 ;
b11110000 A
b11110000 !"
b11110000 m"
b11110000 o"
b11110000 q"
b11110000 t"
b11110000 w"
b11110000 z"
b11110000 }"
b11110000 ##
#450
b11101110 3
b11101110 ~
b11101110 "#
1N"
1Q"
1R"
1L"
1J
1D"
1I"
1C"
b0 2
b0 r
0>
1;"
0H
b0 0
b0 q
0@
0<"
1@"
0I
0D
1g"
1:"
0U
b1011 l
b1011 [
0E
b1 1
b1 p
1?
1_"
12"
0E"
1h
b0 k
0f
1V
1G
1X
1d"
14"
17"
1F"
1["
1l"
11"
1^"
10"
1B"
1T"
1f"
1S
1Q
1d
1b
b10 j
1O
1N
1M
b10 Y
0]
1)"
0W"
b1111111 %"
1V"
0`"
b10001 .
b10001 |
b10001 }
b10001 &"
0h"
1/
b11111111 $"
1."
b10001 &
b10001 5
b10001 8
b10001 m
b11101110 %
b11101110 =
b11101110 o
0+"
1,"
1-"
1X"
0Z"
1a"
0b"
0c"
1i"
0k"
b11101110 (
b11101110 z
b11101110 p"
b0 -
b0 y
b0 s"
b11111111 *
b11111111 x
b11111111 v"
b10001 '
b10001 w
b10001 y"
b11101110 )
b11101110 v
b11101110 |"
b10001 $
b10001 u
b10001 !#
1#"
b0 P
b0 a
b1 K
b1 \
1'"
0S"
0\"
0e"
b1001 !
b1001 t
b1001 %#
b0 #
b0 <
b0 B
b0 ""
b0 r"
b0 u"
b0 x"
b0 {"
b0 ~"
b0 $#
b10010 +
b10010 :
b10010 n
b10000 ,
b10000 {
b10000 n"
b10001 "
b10001 4
b10001 6
b10001 9
b10001 ;
b10001 A
b10001 !"
b10001 m"
b10001 o"
b10001 q"
b10001 t"
b10001 w"
b10001 z"
b10001 }"
b10001 ##
#500
b10 3
b10 ~
b10 "#
1C
1E
b1 1
b1 p
1?
0G
0N"
0Q"
0R"
0:"
0C"
0L"
0^"
0g"
1U
b1010 [
0*"
02"
0<"
0;"
0E"
0D"
1W"
0V"
0`"
0_"
0h"
0/
0i
1f
b1100 l
07"
0="
0@"
0F"
0I"
0X"
0["
0a"
0d"
0i"
0l"
b0 Y
01"
0("
00"
09"
0B"
0T"
0]"
0f"
0Q
0^
1]
b1000 j
b10000 %"
0)"
b100010 .
b100010 |
b100010 }
b100010 &"
13"
b10000 $"
0."
b10000 -
b10000 y
b10000 s"
b11101111 *
b11101111 x
b11101111 v"
b10010 &
b10010 5
b10010 8
b10010 m
b11111101 %
b11111101 =
b11111101 o
0+"
0,"
0-"
14"
05"
06"
b11101101 (
b11101101 z
b11101101 p"
b10010 '
b10010 w
b10010 y"
b11101101 )
b11101101 v
b11101101 |"
b10 $
b10 u
b10 !#
0#"
b1 P
b10 \
0'"
1/"
b1010 !
b1010 t
b1010 %#
b10000 #
b10000 <
b10000 B
b10000 ""
b10000 r"
b10000 u"
b10000 x"
b10000 {"
b10000 ~"
b10000 $#
b10011 +
b10011 :
b10011 n
b10001 ,
b10001 {
b10001 n"
b10010 "
b10010 4
b10010 6
b10010 9
b10010 ;
b10010 A
b10010 !"
b10010 m"
b10010 o"
b10010 q"
b10010 t"
b10010 w"
b10010 z"
b10010 }"
b10010 ##
#550
b11100101 3
b11100101 ~
b11100101 "#
1/
1E"
1l"
0C
0J
1C"
1g"
0E
1;"
1_"
1G
1@"
1d"
b0 0
b0 q
0@
1:"
1^"
0U
b1011 [
b0 l
0D
12"
0<"
0W"
1V"
0`"
b1010 .
b1010 |
b1010 }
b1010 &"
0h"
0g
1I
1f
16"
04"
15"
17"
1="
1X"
1["
1a"
1i"
b10 Y
11"
10"
19"
1T"
1]"
1f"
1Q
0e
0b
0]
b1001000 j
b1110111 %"
1)"
b11110110 $"
b11100101 %
b11100101 =
b11100101 o
b11010 $
b11010 u
b11010 !#
b10011 &
b10011 5
b10011 8
b10011 m
1+"
1-"
b11101100 (
b11101100 z
b11101100 p"
b1 -
b1 y
b1 s"
b11111110 *
b11111110 x
b11111110 v"
b11011 '
b11011 w
b11011 y"
b11100100 )
b11100100 v
b11100100 |"
1#"
b0 P
b1001 a
b11 \
1'"
b1011 !
b1011 t
b1011 %#
b1001 #
b1001 <
b1001 B
b1001 ""
b1001 r"
b1001 u"
b1001 x"
b1001 {"
b1001 ~"
b1001 $#
b10100 +
b10100 :
b10100 n
b10010 ,
b10010 {
b10010 n"
b10011 "
b10011 4
b10011 6
b10011 9
b10011 ;
b10011 A
b10011 !"
b10011 m"
b10011 o"
b10011 q"
b10011 t"
b10011 w"
b10011 z"
b10011 }"
b10011 ##
#600
b1 3
b1 ~
b1 "#
b1 k
0@"
b1010 l
0:"
0U"
0^"
0g"
0H
0f
1*"
02"
1N"
0M"
0W"
0V"
0`"
0_"
0h"
0/
1g
1I
1h
1i
07"
1O"
0P"
0X"
0["
0a"
0d"
0i"
0l"
01"
1("
00"
0K"
0T"
0]"
0f"
1e
0d
0_
1^
1]
b1 j
b100 %"
0)"
03"
b11001 .
b11001 |
b11001 }
b11001 &"
0<"
b101 $"
b10100 &
b10100 5
b10100 8
b10100 m
b11101110 %
b11101110 =
b11101110 o
1+"
0-"
04"
05"
06"
0="
1>"
0?"
b11101011 (
b11101011 z
b11101011 p"
b100 -
b100 y
b100 s"
b11111011 *
b11111011 x
b11111011 v"
b10101 '
b10101 w
b10101 y"
b11101010 )
b11101010 v
b11101010 |"
b10001 $
b10001 u
b10001 !#
0#"
b101 a
b100 \
0'"
0/"
18"
b1100 !
b1100 t
b1100 %#
b101 #
b101 <
b101 B
b101 ""
b101 r"
b101 u"
b101 x"
b101 {"
b101 ~"
b101 $#
b10101 +
b10101 :
b10101 n
b10011 ,
b10011 {
b10011 n"
b10100 "
b10100 4
b10100 6
b10100 9
b10100 ;
b10100 A
b10100 !"
b10100 m"
b10100 o"
b10100 q"
b10100 t"
b10100 w"
b10100 z"
b10100 }"
b10100 ##
#650
b1 3
b1 ~
b1 "#
b0 1
b0 p
0?
0G
1`"
1^"
1V"
1?"
1E"
1["
1:"
0J
1C"
1U"
12"
b1 0
b1 q
1@
b0 [
0<"
1;"
0N"
1M"
0W"
16"
0V
1F
0W
b0 Z
0g
1f
b0 k
1i
b0 l
1="
0>"
0O"
1P"
1X"
11"
09"
1K"
1T"
b110111 %"
1)"
0T
0S
b1010010 Y
0e
0c
1b
0^
b1000000 j
03"
b110001 $"
b1001000 .
b1001000 |
b1001000 }
b1001000 &"
0*"
1."
b100111 %
b100111 =
b100111 o
b11011000 $
b11011000 u
b11011000 !#
b10110 &
b10110 5
b10110 8
b10110 m
14"
b11101001 (
b11101001 z
b11101001 p"
b110 -
b110 y
b110 s"
b11111001 *
b11111001 x
b11111001 v"
b11011110 '
b11011110 w
b11011110 y"
b100001 )
b100001 v
b100001 |"
1#"
b1100 P
b1110 a
b110 \
1/"
b1101 !
b1101 t
b1101 %#
b11001110 #
b11001110 <
b11001110 B
b11001110 ""
b11001110 r"
b11001110 u"
b11001110 x"
b11001110 {"
b11001110 ~"
b11001110 $#
b10111 +
b10111 :
b10111 n
b10101 ,
b10101 {
b10101 n"
b10110 "
b10110 4
b10110 6
b10110 9
b10110 ;
b10110 A
b10110 !"
b10110 m"
b10110 o"
b10110 q"
b10110 t"
b10110 w"
b10110 z"
b10110 }"
b10110 ##
#700
b1 3
b1 ~
b1 "#
b1 2
b1 r
1>
1E
b0 0
b0 q
0@
b1010 [
b1010 l
1H
1U
1V
0F
1W
1g
0I
1<"
1/
06"
1X
1N"
1Q"
1R"
1k"
0+"
04"
15"
0="
1>"
1@"
1G"
1I"
1b"
1d"
1j"
1l"
01"
b0 j
1L"
1g"
0("
10"
19"
1B"
1]"
1f"
0)"
0R
0Q
0O
0N
0M
b0 Y
0`
1E"
1D"
1W"
1`"
b1111110 %"
1_"
1h"
b11111110 $"
b11111100 .
b11111100 |
b11111100 }
b11111100 &"
0*"
0."
b11111110 &
b11111110 5
b11111110 8
b11111110 m
b11111111 %
b11111111 =
b11111111 o
0F"
1H"
0X"
1Y"
1Z"
0a"
1c"
0i"
b1 (
b1 z
b1 p"
b11111110 -
b11111110 y
b11111110 s"
b1 *
b1 x
b1 v"
b11111110 '
b11111110 w
b11111110 y"
b1 )
b1 v
b1 |"
b0 $
b0 u
b0 !#
0#"
b1111 P
b1111 K
b1110 \
1A"
1S"
1\"
1e"
b1110 !
b1110 t
b1110 %#
b11111110 #
b11111110 <
b11111110 B
b11111110 ""
b11111110 r"
b11111110 u"
b11111110 x"
b11111110 {"
b11111110 ~"
b11111110 $#
b11111111 +
b11111111 :
b11111111 n
b11111101 ,
b11111101 {
b11111101 n"
b11111110 "
b11111110 4
b11111110 6
b11111110 9
b11111110 ;
b11111110 A
b11111110 !"
b11111110 m"
b11111110 o"
b11111110 q"
b11111110 t"
b11111110 w"
b11111110 z"
b11111110 }"
b11111110 ##
